[
  {
    "keyword": "Feature",
    "name": "Access The service list  page",
    "line": 1,
    "id": "access-the-service-list--page",
    "tags": [],
    "uri": "features\\service_page.feature",
    "elements": [
      {
        "id": "access-the-service-list--page;a-customer-can-navigate-to-the-service-list--page",
        "keyword": "Scenario",
        "line": 9,
        "name": "A Customer can navigate to the service list  page",
        "tags": [],
        "type": "scenario",
        "steps": [
          {
            "keyword": "Before",
            "hidden": true,
            "match": {
              "location": "Effiom\\Desktop\\dissertation-assistaroo\\assistaroo\\assistaroo-frontend\\node_modules\\cucumber\\lib\\support_code_library_builder\\index.js:62"
            },
            "result": {
              "status": "passed",
              "duration": 2000000
            }
          },
          {
            "arguments": [],
            "keyword": "Given ",
            "line": 5,
            "name": "that a customer navigates to the service home page at \"http://localhost:3000/\"",
            "match": {
              "location": "features\\step_definitions\\services_step_definitions.js:7"
            },
            "result": {
              "status": "passed",
              "duration": 2000000
            }
          },
          {
            "arguments": [],
            "keyword": "Then ",
            "line": 6,
            "name": "the customer must see a page that contains personal main category and \"hair\"",
            "match": {
              "location": "features\\step_definitions\\services_step_definitions.js:25"
            },
            "result": {
              "status": "passed"
            }
          },
          {
            "keyword": "After",
            "hidden": true,
            "match": {
              "location": "Effiom\\Desktop\\dissertation-assistaroo\\assistaroo\\assistaroo-frontend\\node_modules\\cucumber\\lib\\support_code_library_builder\\index.js:62"
            },
            "result": {
              "status": "passed",
              "duration": 1000000
            }
          }
        ]
      },
      {
        "id": "access-the-service-list--page;a-customer-can-navigate-to-the-service-list--page",
        "keyword": "Scenario",
        "line": 10,
        "name": "A Customer can navigate to the service list  page",
        "tags": [],
        "type": "scenario",
        "steps": [
          {
            "keyword": "Before",
            "hidden": true,
            "match": {
              "location": "Effiom\\Desktop\\dissertation-assistaroo\\assistaroo\\assistaroo-frontend\\node_modules\\cucumber\\lib\\support_code_library_builder\\index.js:62"
            },
            "result": {
              "status": "passed"
            }
          },
          {
            "arguments": [],
            "keyword": "Given ",
            "line": 5,
            "name": "that a customer navigates to the service home page at \"http://localhost:3000/\"",
            "match": {
              "location": "features\\step_definitions\\services_step_definitions.js:7"
            },
            "result": {
              "status": "passed"
            }
          },
          {
            "arguments": [],
            "keyword": "Then ",
            "line": 6,
            "name": "the customer must see a page that contains personal main category and \"beauty\"",
            "match": {
              "location": "features\\step_definitions\\services_step_definitions.js:25"
            },
            "result": {
              "status": "passed"
            }
          },
          {
            "keyword": "After",
            "hidden": true,
            "match": {
              "location": "Effiom\\Desktop\\dissertation-assistaroo\\assistaroo\\assistaroo-frontend\\node_modules\\cucumber\\lib\\support_code_library_builder\\index.js:62"
            },
            "result": {
              "status": "passed",
              "duration": 11000000
            }
          }
        ]
      },
      {
        "id": "access-the-service-list--page;a-customer-can-navigate-to-the-service-list--page",
        "keyword": "Scenario",
        "line": 11,
        "name": "A Customer can navigate to the service list  page",
        "tags": [],
        "type": "scenario",
        "steps": [
          {
            "keyword": "Before",
            "hidden": true,
            "match": {
              "location": "Effiom\\Desktop\\dissertation-assistaroo\\assistaroo\\assistaroo-frontend\\node_modules\\cucumber\\lib\\support_code_library_builder\\index.js:62"
            },
            "result": {
              "status": "passed"
            }
          },
          {
            "arguments": [],
            "keyword": "Given ",
            "line": 5,
            "name": "that a customer navigates to the service home page at \"http://localhost:3000/\"",
            "match": {
              "location": "features\\step_definitions\\services_step_definitions.js:7"
            },
            "result": {
              "status": "passed"
            }
          },
          {
            "arguments": [],
            "keyword": "Then ",
            "line": 6,
            "name": "the customer must see a page that contains personal main category and \"treatments\"",
            "match": {
              "location": "features\\step_definitions\\services_step_definitions.js:25"
            },
            "result": {
              "status": "passed",
              "duration": 1000000
            }
          },
          {
            "keyword": "After",
            "hidden": true,
            "match": {
              "location": "Effiom\\Desktop\\dissertation-assistaroo\\assistaroo\\assistaroo-frontend\\node_modules\\cucumber\\lib\\support_code_library_builder\\index.js:62"
            },
            "result": {
              "status": "passed"
            }
          }
        ]
      }
    ]
  },
  {
    "keyword": "Feature",
    "name": "Access The routes in services page",
    "line": 1,
    "id": "access-the-routes-in-services-page",
    "tags": [],
    "uri": "features\\services_routes.feature",
    "elements": [
      {
        "id": "access-the-routes-in-services-page;a-customer-can-navigate-to-each-of-the-service-categories-page",
        "keyword": "Scenario",
        "line": 11,
        "name": "A Customer can navigate to each of the service categories page",
        "tags": [],
        "type": "scenario",
        "steps": [
          {
            "keyword": "Before",
            "hidden": true,
            "match": {
              "location": "Effiom\\Desktop\\dissertation-assistaroo\\assistaroo\\assistaroo-frontend\\node_modules\\cucumber\\lib\\support_code_library_builder\\index.js:62"
            },
            "result": {
              "status": "passed",
              "duration": 18000000
            }
          },
          {
            "arguments": [],
            "keyword": "When ",
            "line": 6,
            "name": "the customer clicks on \"laundry\" from the main category",
            "match": {
              "location": "features\\step_definitions\\service_routes_step_definitions.js:7"
            },
            "result": {
              "status": "passed",
              "duration": 1000000
            }
          },
          {
            "arguments": [],
            "keyword": "Then ",
            "line": 7,
            "name": "the customer must be redirected to \"http://localhost:3000/laundry\" and should see \"washing\" subcategory",
            "match": {
              "location": "features\\step_definitions\\service_routes_step_definitions.js:30"
            },
            "result": {
              "status": "passed"
            }
          },
          {
            "keyword": "After",
            "hidden": true,
            "match": {
              "location": "Effiom\\Desktop\\dissertation-assistaroo\\assistaroo\\assistaroo-frontend\\node_modules\\cucumber\\lib\\support_code_library_builder\\index.js:62"
            },
            "result": {
              "status": "passed",
              "duration": 1000000
            }
          }
        ]
      },
      {
        "id": "access-the-routes-in-services-page;a-customer-can-navigate-to-each-of-the-service-categories-page",
        "keyword": "Scenario",
        "line": 12,
        "name": "A Customer can navigate to each of the service categories page",
        "tags": [],
        "type": "scenario",
        "steps": [
          {
            "keyword": "Before",
            "hidden": true,
            "match": {
              "location": "Effiom\\Desktop\\dissertation-assistaroo\\assistaroo\\assistaroo-frontend\\node_modules\\cucumber\\lib\\support_code_library_builder\\index.js:62"
            },
            "result": {
              "status": "passed",
              "duration": 18000000
            }
          },
          {
            "arguments": [],
            "keyword": "When ",
            "line": 6,
            "name": "the customer clicks on \"cleaning\" from the main category",
            "match": {
              "location": "features\\step_definitions\\service_routes_step_definitions.js:7"
            },
            "result": {
              "status": "passed"
            }
          },
          {
            "arguments": [],
            "keyword": "Then ",
            "line": 7,
            "name": "the customer must be redirected to \"http://localhost:3000/cleaning\" and should see \"cleaning\" subcategory",
            "match": {
              "location": "features\\step_definitions\\service_routes_step_definitions.js:30"
            },
            "result": {
              "status": "passed"
            }
          },
          {
            "keyword": "After",
            "hidden": true,
            "match": {
              "location": "Effiom\\Desktop\\dissertation-assistaroo\\assistaroo\\assistaroo-frontend\\node_modules\\cucumber\\lib\\support_code_library_builder\\index.js:62"
            },
            "result": {
              "status": "passed",
              "duration": 1000000
            }
          }
        ]
      },
      {
        "id": "access-the-routes-in-services-page;a-customer-can-navigate-to-each-of-the-service-categories-page",
        "keyword": "Scenario",
        "line": 13,
        "name": "A Customer can navigate to each of the service categories page",
        "tags": [],
        "type": "scenario",
        "steps": [
          {
            "keyword": "Before",
            "hidden": true,
            "match": {
              "location": "Effiom\\Desktop\\dissertation-assistaroo\\assistaroo\\assistaroo-frontend\\node_modules\\cucumber\\lib\\support_code_library_builder\\index.js:62"
            },
            "result": {
              "status": "passed",
              "duration": 19000000
            }
          },
          {
            "arguments": [],
            "keyword": "When ",
            "line": 6,
            "name": "the customer clicks on \"personal\" from the main category",
            "match": {
              "location": "features\\step_definitions\\service_routes_step_definitions.js:7"
            },
            "result": {
              "status": "passed",
              "duration": 1000000
            }
          },
          {
            "arguments": [],
            "keyword": "Then ",
            "line": 7,
            "name": "the customer must be redirected to \"http://localhost:3000/personal\" and should see \"beauty\" subcategory",
            "match": {
              "location": "features\\step_definitions\\service_routes_step_definitions.js:30"
            },
            "result": {
              "status": "passed"
            }
          },
          {
            "keyword": "After",
            "hidden": true,
            "match": {
              "location": "Effiom\\Desktop\\dissertation-assistaroo\\assistaroo\\assistaroo-frontend\\node_modules\\cucumber\\lib\\support_code_library_builder\\index.js:62"
            },
            "result": {
              "status": "passed"
            }
          }
        ]
      },
      {
        "id": "access-the-routes-in-services-page;a-customer-can-navigate-to-each-of-the-service-categories-page",
        "keyword": "Scenario",
        "line": 14,
        "name": "A Customer can navigate to each of the service categories page",
        "tags": [],
        "type": "scenario",
        "steps": [
          {
            "keyword": "Before",
            "hidden": true,
            "match": {
              "location": "Effiom\\Desktop\\dissertation-assistaroo\\assistaroo\\assistaroo-frontend\\node_modules\\cucumber\\lib\\support_code_library_builder\\index.js:62"
            },
            "result": {
              "status": "passed",
              "duration": 2000000
            }
          },
          {
            "arguments": [],
            "keyword": "When ",
            "line": 6,
            "name": "the customer clicks on \"maintenance\" from the main category",
            "match": {
              "location": "features\\step_definitions\\service_routes_step_definitions.js:7"
            },
            "result": {
              "status": "passed",
              "duration": 1000000
            }
          },
          {
            "arguments": [],
            "keyword": "Then ",
            "line": 7,
            "name": "the customer must be redirected to \"http://localhost:3000/maintenance\" and should see \"window cleaning\" subcategory",
            "match": {
              "location": "features\\step_definitions\\service_routes_step_definitions.js:30"
            },
            "result": {
              "status": "passed"
            }
          },
          {
            "keyword": "After",
            "hidden": true,
            "match": {
              "location": "Effiom\\Desktop\\dissertation-assistaroo\\assistaroo\\assistaroo-frontend\\node_modules\\cucumber\\lib\\support_code_library_builder\\index.js:62"
            },
            "result": {
              "status": "passed",
              "duration": 1000000
            }
          }
        ]
      },
      {
        "id": "access-the-routes-in-services-page;a-customer-can-navigate-to-each-of-the-service-categories-page",
        "keyword": "Scenario",
        "line": 15,
        "name": "A Customer can navigate to each of the service categories page",
        "tags": [],
        "type": "scenario",
        "steps": [
          {
            "keyword": "Before",
            "hidden": true,
            "match": {
              "location": "Effiom\\Desktop\\dissertation-assistaroo\\assistaroo\\assistaroo-frontend\\node_modules\\cucumber\\lib\\support_code_library_builder\\index.js:62"
            },
            "result": {
              "status": "passed",
              "duration": 19000000
            }
          },
          {
            "arguments": [],
            "keyword": "When ",
            "line": 6,
            "name": "the customer clicks on \"pets\" from the main category",
            "match": {
              "location": "features\\step_definitions\\service_routes_step_definitions.js:7"
            },
            "result": {
              "status": "passed",
              "duration": 1000000
            }
          },
          {
            "arguments": [],
            "keyword": "Then ",
            "line": 7,
            "name": "the customer must be redirected to \"http://localhost:3000/pets\" and should see \"grooming\" subcategory",
            "match": {
              "location": "features\\step_definitions\\service_routes_step_definitions.js:30"
            },
            "result": {
              "status": "passed"
            }
          },
          {
            "keyword": "After",
            "hidden": true,
            "match": {
              "location": "Effiom\\Desktop\\dissertation-assistaroo\\assistaroo\\assistaroo-frontend\\node_modules\\cucumber\\lib\\support_code_library_builder\\index.js:62"
            },
            "result": {
              "status": "passed",
              "duration": 1000000
            }
          }
        ]
      },
      {
        "id": "access-the-routes-in-services-page;a-customer-can-navigate-to-each-of-the-service-categories-page",
        "keyword": "Scenario",
        "line": 16,
        "name": "A Customer can navigate to each of the service categories page",
        "tags": [],
        "type": "scenario",
        "steps": [
          {
            "keyword": "Before",
            "hidden": true,
            "match": {
              "location": "Effiom\\Desktop\\dissertation-assistaroo\\assistaroo\\assistaroo-frontend\\node_modules\\cucumber\\lib\\support_code_library_builder\\index.js:62"
            },
            "result": {
              "status": "passed",
              "duration": 9000000
            }
          },
          {
            "arguments": [],
            "keyword": "When ",
            "line": 6,
            "name": "the customer clicks on \"products\" from the main category",
            "match": {
              "location": "features\\step_definitions\\service_routes_step_definitions.js:7"
            },
            "result": {
              "status": "passed",
              "duration": 1000000
            }
          },
          {
            "arguments": [],
            "keyword": "Then ",
            "line": 7,
            "name": "the customer must be redirected to \"http://localhost:3000/products\" and should see \"vacum cleaner\" subcategory",
            "match": {
              "location": "features\\step_definitions\\service_routes_step_definitions.js:30"
            },
            "result": {
              "status": "passed"
            }
          },
          {
            "keyword": "After",
            "hidden": true,
            "match": {
              "location": "Effiom\\Desktop\\dissertation-assistaroo\\assistaroo\\assistaroo-frontend\\node_modules\\cucumber\\lib\\support_code_library_builder\\index.js:62"
            },
            "result": {
              "status": "passed"
            }
          }
        ]
      },
      {
        "id": "access-the-routes-in-services-page;a-customer-can-navigate-to-each-of-the-service-categories-page",
        "keyword": "Scenario",
        "line": 17,
        "name": "A Customer can navigate to each of the service categories page",
        "tags": [],
        "type": "scenario",
        "steps": [
          {
            "keyword": "Before",
            "hidden": true,
            "match": {
              "location": "Effiom\\Desktop\\dissertation-assistaroo\\assistaroo\\assistaroo-frontend\\node_modules\\cucumber\\lib\\support_code_library_builder\\index.js:62"
            },
            "result": {
              "status": "passed"
            }
          },
          {
            "arguments": [],
            "keyword": "When ",
            "line": 6,
            "name": "the customer clicks on \"home-care\" from the main category",
            "match": {
              "location": "features\\step_definitions\\service_routes_step_definitions.js:7"
            },
            "result": {
              "status": "passed"
            }
          },
          {
            "arguments": [],
            "keyword": "Then ",
            "line": 7,
            "name": "the customer must be redirected to \"http://localhost:3000/home-care\" and should see \"care\" subcategory",
            "match": {
              "location": "features\\step_definitions\\service_routes_step_definitions.js:30"
            },
            "result": {
              "status": "passed",
              "duration": 1000000
            }
          },
          {
            "keyword": "After",
            "hidden": true,
            "match": {
              "location": "Effiom\\Desktop\\dissertation-assistaroo\\assistaroo\\assistaroo-frontend\\node_modules\\cucumber\\lib\\support_code_library_builder\\index.js:62"
            },
            "result": {
              "status": "passed"
            }
          }
        ]
      }
    ]
  }
]